{
  "project_info": {
    "project_number": "88403162889",
    "firebase_url": "https://mobilegglogin.firebaseio.com",
    "project_id": "mobilegglogin",
    "storage_bucket": "mobilegglogin.appspot.com"
  },
  "client": [
    {
      "client_info": {
        "mobilesdk_app_id": "1:88403162889:android:938549fa3239ddc63b05d8",
        "android_client_info": {
          "package_name": "fpt.edu.vn.swd301_appmobile"
        }
      },
      "oauth_client": [
        {
          "client_id": "88403162889-niu20cg6aju2nesmhv79ggb5quutrdri.apps.googleusercontent.com",
          "client_type": 1,
          "android_info": {
            "package_name": "fpt.edu.vn.swd301_appmobile",
            "certificate_hash": "340f65f7d9d1ee958a72b31366faf4e8f4b0b09a"
          }
        },
        {
          "client_id": "88403162889-33vv80m0sgiqf67musjnvqrvrrn5cpme.apps.googleusercontent.com",
          "client_type": 3
        }
      ],
      "api_key": [
        {
          "current_key": "AIzaSyBM5aYMRfM9sZE8YSPtW5JEkXaHfkNBzlk"
        }
      ],
      "services": {
        "appinvite_service": {
          "other_platform_oauth_client": [
            {
              "client_id": "88403162889-33vv80m0sgiqf67musjnvqrvrrn5cpme.apps.googleusercontent.com",
              "client_type": 3
            }
          ]
        }
      }
    }
  ],
  "configuration_version": "1"
}